<svg version="1.1" id="Layer_1" xmlns="http://www.w3.org/2000/svg" xmlns:xlink="http://www.w3.org/1999/xlink" x="0px" y="0px"
	 width="100%" viewBox="0 0 808 589" enable-background="new 0 0 808 589" xml:space="preserve">
<path fill="#CC0001" opacity="1.000000" stroke="none" 
	d="
M809.000000,2.999999 
	C809.000000,198.608261 809.000000,394.216522 809.000000,590.000000 
	C540.305298,590.000000 271.610626,590.000000 2.493981,589.532410 
	C2.066010,396.410919 2.062680,203.757019 2.010326,11.103132 
	C2.009863,9.401997 1.351305,7.701040 1.000000,6.000000 
	C1.000000,5.250000 1.000000,4.500000 1.453558,3.512043 
	C3.402913,3.201454 4.898711,3.065192 6.394509,3.065186 
	C272.264587,3.064053 538.134644,3.072783 804.004700,3.077513 
	C805.669800,3.077542 807.334900,3.026952 809.000000,2.999999 
z"/>
<path fill="#FBFFFF" opacity="1.000000" stroke="none" 
	d="
M1.000000,2.000000 
	C1.166667,1.666667 1.315919,1.056198 1.502793,1.044456 
	C2.830883,0.961004 4.166667,1.000000 5.500000,1.000000 
	C273.333344,1.000000 541.166687,1.000000 808.531372,1.500032 
	C539.041809,2.000042 270.020905,2.000021 1.000000,2.000000 
z"/>
<path fill="#240000" opacity="1.000000" stroke="none" 
	d="
M1.000000,2.250000 
	C270.020905,2.000021 539.041809,2.000042 808.531372,2.000032 
	C809.000000,2.000000 809.000000,2.500000 809.000000,2.749999 
	C807.334900,3.026952 805.669800,3.077542 804.004700,3.077513 
	C538.134644,3.072783 272.264587,3.064053 6.394509,3.065186 
	C4.898711,3.065192 3.402913,3.201454 1.453558,3.137043 
	C1.000000,3.000000 1.000000,2.500000 1.000000,2.250000 
z"/>
<path fill="#240000" opacity="1.000000" stroke="none" 
	d="
M1.000000,6.468657 
	C1.351305,7.701040 2.009863,9.401997 2.010326,11.103132 
	C2.062680,203.757019 2.066010,396.410919 2.036037,589.532349 
	C1.666683,589.833679 1.056195,589.684753 1.044465,589.498230 
	C0.961041,588.171204 1.000000,586.836426 1.000000,585.504089 
	C1.000000,392.648499 1.000000,199.792908 1.000000,6.468657 
z"/>
</svg>